{
    "/js/app.js": "/js/app.js?id=c0f3f703d5996a73afb3",
    "/css/app.css": "/css/app.css?id=577fcf1b727f3ba9d298",
    "/js/backend.js": "/js/backend.js?id=93c2c8718faa66baff6d",
    "/js/tags.js": "/js/tags.js?id=2c79fe3f6092833c92e4",
    "/js/datepicker.js": "/js/datepicker.js?id=b55cca73970d25bc3640",
    "/js/switch.js": "/js/switch.js?id=d626f421949f028b41b4",
    "/js/role.js": "/js/role.js?id=26e9dafa18ed3bd682a1",
    "/js/permission.js": "/js/permission.js?id=5b3431b77b1afeea27f6",
    "/js/user.js": "/js/user.js?id=0e89340ea4ab7318920f",
    "/js/notification.js": "/js/notification.js?id=2bbda1a3693b985b1a4e",
    "/css/backend.css": "/css/backend.css?id=a2ffb972a6e8f650d9a0"
}
